# uid;localPhoneNumber;intlPhoneNumber;fax;email
EmailContactUs;0800 009 4123 (UK Toll Free);+44 (0)20 7022 0828;;customercare@matchesfashion.com
EmailContactUsUS;1-877-782-7317 (USA Toll Free);+44 (0)20 7022 0828;;customercare@matchesfashion.com
EmailContactUsAU;1-800-836-284 (Australia Toll Free);+44 (0)20 7022 0828;;customercare@matchesfashion.com
EmailContactUsINT;;+44 (0)20 7022 0828;;customercare@matchesfashion.com
EmailContactUsFR;0800 945 810 (numéro vert);+44 (0)20 7022 0828 (depuis l’international). <br> Service en français de 9h à 18h, 7 j/7 <br> Service en anglais 24 h/24, 7 j/7.;;serviceclient@matchesfashion.com
EmailContactUsDE;;+44 (0)20 7022 0828;;customercare@matchesfashion.com
EmailContactUsHK;"5808 7188 (local rates in Hong Kong; local and English speaking)";+44 (0)20 7022 0828;;customercare@matchesfashion.com
EmailContactUsSK_en;"080 822 0307 (local rates in South Korea; English speaking)";+44 (0)20 7022 0828;;customercare@matchesfashion.com
EmailContactUsAPAC;+852 5808 7188;+44 (0)20 7022 0828;;customercare@matchesfashion.com
EmailContactUsJP_en;0800 919 1268(JP Toll Free);;;customercare@matchesfashion.com
EmailContactUsJP_ja;0800 919 1268（日本国内フリーダイヤル、日本語対応）;;;customercare@matchesfashion.com
EmailContactUsSK_ko;"080 822 0307 (한국어 및 영어 상담 가능&#44; 한국 내 지역 요금)";+44 (0)20 7022 0828;;customercare@matchesfashion.com
