# uid;name;localizedName;localizedName;localizedName;localPhoneNumber;intlPhoneNumber;fax;email
ContactAddressContactUS;Head Office;;Head Office;本社;;0845 6025 612;+44 (0)20 7622 5843;
ContactPrivateShoppingContactUs;Private Shopping;Shopping privé;프라이빗 쇼핑;プライベートショッピング;;+44 (0)333 321 2167;;privateshopping@matchesfashion.com
ContactPressContactContactUs;Press Office;Service de presse;프레스;プレスオフィス;;+44 (0)20 7819 7934;;press@matchesfashion.com
ContactCustomerCareContactUs;Customer Care;;;;0800 009 4123 (UK Toll Free);+44 (0)20 7022 0828;;customercare@matchesfashion.com
ContactCustomerCareContactUsUS;Customer Care;;;;1-877-782-7317 (USA Toll Free);+44 (0)20 7022 0828;;customercare@matchesfashion.com
ContactCustomerCareContactUsAU;Customer Care;;;;1-800-836-284 (Australia Toll Free);+44 (0)20 7022 0828;;customercare@matchesfashion.com
ContactCustomerCareContactUsINT;Customer Care;;;;;+44 (0)20 7022 0828;;customercare@matchesfashion.com
ContactCustomerCareContactUsFR;Service client;Service client;고객 서비스 센터;;"0800 945 810 (French freephone; English speaking)";+44 (0)20 7022 0828;;serviceclient@matchesfashion.com
ContactCustomerCareContactUsDE;Customer Care;;;;"0800 723 8899 (German freephone; English speaking)";+44 (0)20 7022 0828;;customercare@matchesfashion.com
ContactCustomerCareContactUsHK;Customer Care;;;;"5808 7188 (local rates in Hong Kong; English speaking)";+44 (0)20 7022 0828;;customercare@matchesfashion.com
ContactCustomerCareContactUsSK;Customer Care;;고객 서비스 센터;;"080 822 0307 (local rates in South Korea; English speaking)";+44 (0)20 7022 0828;;customercare@matchesfashion.com
ContactMyStylistContactUs;MyStylist;;;;0800 009 4123 (UK Toll Free);+44 (0)20 7022 0828;;mystylist@matchesfashion.com
ContactMyStylistContactUsUS;MyStylist;;;;1-877-782-7317 (USA Toll Free);+44 (0)20 7022 0828;;mystylist@matchesfashion.com
ContactMyStylistContactUsAU;MyStylist;;;;1-800-836-284 (Australia Toll Free);+44 (0)20 7022 0828;;mystylist@matchesfashion.com
ContactMyStylistContactUsINT;MyStylist;;;;;+44 (0)20 7022 0828;;mystylist@matchesfashion.com
ContactMyStylistContactUsFR;MyStylist;;;;"0800 945 810 (French freephone; English speaking)";+44 (0)20 7022 0828;;mystylist@matchesfashion.com
ContactMyStylistContactUsDE;MyStylist;;;;"0800 723 8899 (German freephone; English speaking)";+44 (0)20 7022 0828;;mystylist@matchesfashion.com
ContactMyStylistContactUsHK;MyStylist;;;;"5808 7188 (local rates in Hong Kong; English speaking)";+44 (0)20 7022 0828;;mystylist@matchesfashion.com
ContactMyStylistContactUsSK;MyStylist;;;;"080 822 0307 (local rates in South Korea; English speaking)";+44 (0)20 7022 0828;;mystylist@matchesfashion.com
ContactMyStylistAndCustomerCareContactUS;Customer Care and MyStylist opening hours;Horaires d'ouverture du service client et de MyStylist;고객 서비스 센터 및 Mystylist 운영 시간;;;;;
ContactCustomerCareContactUsAPAC;Customer Care;;;;+852 5808 7188;+44 (0)20 7022 0828;;customercare@matchesfashion.com
ContactMyStylistContactUsAPAC;MyStylist;;;;+852 5808 7188;+44 (0)20 7022 0828;;mystylist@matchesfashion.com
ContactMyStylistAndCustomerCareContactUSKR;Customer Care and MyStylist Opening hours;;고객 서비스 센터 및 Mystylist 운영 시간;;;;;
ContactMyStylistAndCustomerCareContactUsJP;Customer Care and MyStylist opening hours;;;カスタマーケアおよびMyStylistの受付時間;;;;
ContactMyStylistContactUsJP_ja;MyStylist;;;MyStylist;0800 919 1268（日本国内フリーダイヤル、日本語対応）;+44 (0)20 7022 0828（英語対応のみ）;;mystylist@matchesfashion.com
ContactMyStylistContactUsJP_en;MyStylist;;;MyStylist;0800 919 1268(JP Toll Free);+44 (0)20 7022 0828;;mystylist@matchesfashion.com
ContactCustomerCareContactUsJP_en;Customer Care;;;カスタマーケア;0800 919 1268(JP Toll Free);+44 (0)20 7022 0828;;mystylist@matchesfashion.com
ContactCustomerCareContactUsJP_ja;Customer Care;;;カスタマーケア;0800 919 1268（日本国内フリーダイヤル、日本語対応）;+44 (0)20 7022 0828（英語対応のみ）;;mystylist@matchesfashion.com
