# uid;content
termsAndConditionsPart1;"
<div>
   <h3>이용 약관</h3>
</div>
<h4>1. 웹사이트 이용</h4>
<p>MATCHESFASHION.COM 웹사이트(이하 &quot;&quot;웹사이트&quot;&quot;)에 오신 것을 환영합니다. 해당 웹사이트를 이용하기 위해서는 본 이용 약관(이하 &quot;&quot;약관&quot;&quot;)에 동의하셔야 합니다. 동의하지 않으시는 경우, 웹사이트의 자유로운 이용에 제약이 있을 수 있습니다.</p>
<p>MATCHESFASHION.COM은 개인 고객을 대상으로 의류, 액세서리, 기타 상품(이하 &quot;&quot;상품&quot;&quot;)을 판매하는 목적으로 만들어진 Matchesfashion Limited(이하 &quot;&quot;MATCHESFASHION.COM&quot;&quot;/&quot;&quot;당사&quot;&quot;)의 온라인 서비스입니다.</p>
<p>Company name: Matchesfashion Limited <br/>Company number: 02717838 <br/>Where Registered: England &amp; Wales <br/>Registered office address: Level 7 The Shard, 32 London Bridge Street, London, England, SE1 9SG <br/>VAT registration number: GB 318406959</p>
<p>당사는 웹사이트 상의 상품 이미지가 상품의 실물과 최대한 일치하도록 최선을 다하고 있습니다. 그러나 고객의 개인 모니터 설정에 따라 색상 선명도에 차이가 있을 수 있으므로, 실제 상품의 색상과 화면 상의 상품 색상이 정확히 일치하지 않을 수 있다는 점을 유의하시길 바랍니다. 주문을 하시기 전에 본 약관을 정독하여 주십시오.</p>
<h5>본 웹사이트 상의 상품을 구매하기 위해 다음의 내용이 충족되어야 합니다.</h5>
<p>a) 유효한 신용카드/직불카드를 소유해야 합니다. <br/> b) 웹사이트에 가입할 당시 제공한 개인 정보가 정확하고 유효한 사실임을 보장해야 합니다.</p>
<p>개인 정보에 변동이 있을 경우 이메일<strong> <a href="""">customercare@matchesfashion.com</a></strong>을 통해 고객 서비스 센터로 즉시 연락해 주십시오.</p>
<p>타인을 사칭하거나 가명 또는 이용 권한이 없는 성명을 사용하지 않는다는 내용에 동의해야 합니다.</p>
<p>이 웹사이트를 이용하는 것은 본 약관 내용에 동의를 했으며 이를 따른다는 것을 의미합니다.</p>
<p>당사는 추후 사정에 따라 단독 재량으로 본 약관의 내용을 변경할 수 있습니다. 약관의 내용이 변경된 이후, 이 웹사이트를 이용하는 것은 변경된 약관 내용에 동의를 했으며 이를 따르는 것으로 간주됩니다.</p>
<div separator="""">&nbsp;</div>
<h4>2. 주문하기</h4>
<p>MATCHESFASHION.COM의 상품을 구매하려면 본 약관에 따라 명시된 가격을 지불해야 합니다.</p>
<p>주문 절차는 웹사이트의 일련의 안내에 따라 이루어집니다. 온라인 주문 절차의 마지막 단계에서 &quot;&quot;지금 구매하기(Purchase Now)&quot;&quot; 버튼을 누르면 주문이 완료됩니다. <br/> 주문을 완료하는 즉시, 주문 번호와 신용/직불카드에서 인출될 금액이 포함된 주문 관련 정보가 이메일로 고객에게 전송됩니다. 해당 이메일은 MATCHESFASHION.COM에서 주문을 승인하거나 확인하는 내용은 아닙니다.</p>
<p>당사에서 고객의 주문을 승인하지 않거나 고객이 아래(3b 섹션)의 환불 정책에 따라 주문을 취소하는 경우를 제외하면, 고객의 주문이 승인되고 고객과 당사 간의 완전한 계약이 체결된 후에 당사는 고객에게 주문 상품을 발송하고 관련 이메일을 보냅니다.</p>
<p>당사는 고객의 주문을 승인하는 즉시 해당 날짜와 시간이 표시된 이메일을 고객에게 전송합니다. 해당 이메일 수령 날짜와 시간은 당사가 통제할 수 없는 사유로 인한 고객의 해당 이메일의 미수령 여부와 상관없이 적용됩니다.</p>
<p>주문 관련 정보가 필요한 경우, 고객 서비스 센터 전화<strong> <span>080-822-0307</span>번(한국어 및 영어 상담 가능, 365일 24시간 운영)</strong> 및 <strong><span>+44-20-7022-0828</span></strong>번(국제 전화 요금 적용) 또는 이메일 <strong><a href="""">customercare@matchesfashion.com</a></strong>으로 연락해 주십시오.</p>
<p>(i) 고객이 주문한 상품의 수량이 없거나, (ii) 고객의 카드 만료 날짜가 주문일로부터 28일 이내이거나 (iii) 고객의 지불이 승인되지 않거나 (iv) 상품 또는 가격 관련 오류가 발견되면, 당사는 고객의 주문을 승인하지 않을 수 있습니다. 당사는 언제든지 일방적으로 고객의 구매 결정을 거부할 권리가 있습니다.</p>
<p>고객의 주문 확인서에 따라 주문을 이행할 수 없는 경우, 당사는 이메일 또는 전화를 통해 고객에게 연락을 드립니다. 아래의 3b 섹션에 제시된 환불 정책을 살펴보십시오.</p>
<p>당사는 웹사이트 상에 보이는 상품 수량과 실제 판매 가능 수량이 일치하도록 최대한 노력하고 있으나 웹사이트 상의 특정 상품이 항상 구매 가능하다는 것을 보장하지 못합니다. 고객이 주문한 상품을 배송할 수 없는 경우에는 고객의 계좌로 환불해 드립니다.</p>
<div separator="""">&nbsp;</div>
<h4>3. 가격 및 배송 정책</h4>
<h4>3a. 결제</h4>
<p>통화: 고객이 선택한 통화로 결제가 진행되며 현재 결제 가능한 통화는 GBP &pound; (영국 파운드), EUR &euro; (유로), USD $ (미국 달러), AUD $ (호주 달러) 및 HKD $ (홍콩 달러)입니다. 최종 결제 시 사용 가능한 통화는 배송지에 따라 제한될 수 있습니다. 배송 국가 및 통화는 언제든지 변경 가능합니다. 영국으로 배송되는 상품의 가격은 GBP &pound; (영국 파운드)로 표시됩니다. 호주로 배송되는 상품의 가격은 AUD $ (호주 달러)로 표시됩니다. 유럽을 벗어난 아메리카 대륙(캐나다와 캐리비안 지역을 포함하는 남북 아메리카)으로 배송되는 상품의 가격은 USD $ (미국 달러)로 표시됩니다. 홍콩으로 배송되는 상품의 가격은 HKD $ (홍콩 달러)로 표시됩니다. 기타 국가로 배송되는 상품의 가격은 EUR &euro; (유로)로 표시됩니다.</p>
<p>결제 시 보이는 가격이 고객이 실제 지불하는 가격입니다. 이후 통화 변동이 발생해도 해당 가격은 달라지지 않습니다. 환불은 환불 시점이 아닌 구매 시점의 가격을 기준으로 처리됩니다.</p>
<p>VAT(부가가치세): 영국에 거주하는 고객이 영국으로 배송되는 상품을 고른 경우, 영국 현지의 세법을 근거하여 상품 가격은 VAT를 포함합니다. 배송 국가가 영국이 아니지만 EU 국가 및 그에 속한 지역일 경우, 상품 가격은 VAT를 포함하며 유로로 표시됩니다. 그 밖의 다른 모든 국가들의 경우 VAT 부과 대상이 아니므로 상품은 VAT 제외 가격으로 표시됩니다.</p>
<p>관세 및 부가세 선지불: 호주, 바레인, 캐나다, 일본, 쿠웨이트, 사우디아라비아, 싱가포르, 아랍에미리트, 미국 본토, 카타르로 배송되는 주문은 관세지급인도조건(DDP)에 따르며 관련 부가세 및 관세가 웹사이트 상의 상품 가격에 모두 포함되어 있습니다(개별 상품 혹은 전체 주문 금액이 해당 국가의 관세 기준을 초과하는 경우). 고객이 원하는 경우, 관세지급인도조건을 미선택하여 배송 시에 관세 및 부가세를 내실 수도 있습니다. 대한민국을 배송 국가로 설정했을 때 보이는 상품 가격은 관세 및/또는 부가세가 포함되지 않은 가격입니다. 고객이 관세와 부가세를 미리 지불하고 싶으시다면 결제 단계에 보이는 '관세와 부가세를 미리 지불하기' 옆 박스를 클릭하여 상품 가격과 함께 해당 금액을 지불하실 수 있습니다. 관세 관련 사항은 쇼핑백과 결제 전 과정에 걸쳐 명시되어 있으며 모든 배송 국가에 적용됩니다. 고객은 관세지급인도조건으로 상품 구매를 원하지 않으시면, 결제 단계에서 보이는 '관세와 부가세를 미리 지불하기' 옆 박스에 체크 표시를 해제해 주십시오.상품 수령을 위해 필요 비용을 지불하는 것은 고객의 책임입니다. 구매한 상품이 세관에 도착하여 비용이 부과되는 경우, 배송업체 측에서 고객에게 부과되는 비용을 전화로 안내합니다. 고객은 구매한 상품이 해당 국가의 세관을 통과하는 데 필요한 비용을 지불해야 할 의무가 있으며, 이로 인해 배송이 지연될 수 있습니다. 고객이 수입세를 내지 않는 것을 선택할 시 MATCHESFASHION.COM은 추가적으로 발생하는 비용을 청구할 수 있는 권리를 가지게 됩니다. EU 외 국가 혹은 위에 표기된 국가로의 주문은 지방 수입세가 배송 과정에서 발생할 수 있으며 상품 수령을 위해 필요 비용을 지불하는 것은 고객의 책임입니다. 관세는 모든 상품의 가격을 합산한 총 금액에 고정 비율을 적용하여 책정됩니다. 세금이 과다 청구 되었다고 판단되는 경우, 고객 서비스 센터 전화 <strong>080-822-0307번(한국어 및 영어 상담 가능, 365일 24시간 운영)</strong> 및 <strong>+44-20-7022-0828</strong>번(국제 전화 요금 적용) 또는 이메일 <strong><a href="""">customercare@matchesfashion.com</a></strong>으로 연락해 주십시오. 당사는 내용을 확인한 뒤 차액이 발생한 경우 해당 금액을 환불해 드립니다.</p>
<p> <br/>MATCHESFASHION.COM은 현시점에서 미국 판매세를 징수 또는 이용하지 않음을 알려드립니다. 과세 면제 대상이 아닌 경우, 해당 지역의 부가세가 부과될 수 있습니다. MATCHESFASHION.COM에서 부과하지 않은 부가세과 관련해 구매 자산을 신고하고 해당 주의 법에 따라 면제 대상이 아닌 상품에 대해 관련 부가세를 지불하는 것은 고객의 책임입니다. 고객이 주문한 상품이 관세지급인도조건에 따라 미국이나 호주로 배송되는 경우, 환불 요청을 하면 관세와 부가세도 환불 처리됩니다. MATCHESFASHION.COM에서 상품을 주문함으로써, 고객은 이민국과 통관 보호국으로부터 당사로 관세 환급 의무를 양도하는 것이고, 직접 관세 환급을 신청하지 않겠다고 동의한 것으로 간주합니다.</p>
<p>MATCHESFASHION.COM은 캐나다 국경관리청(Canada Border Service Agency, CBSA)의 승인을 받은 가맹점입니다. MATCHESFASHION.COM에서 상품을 주문한 고객은 DHL Canada를 관세 중개인으로 승인하고 CBSA의 구매 승인을 받고 관세 및 부가세를 지불하며 본인이 구매한 상품과 관세 및 부가세 계정, 상품 반환 및 전자 거래를 진행하고 본인을 대신해 환불 청구를 하도록 허가한 것으로 간주합니다. 관세 프로그램에 따라 CBSA는 반환된 상품에 지불된 관세 및 부가세 환급을 세관 중개인에게 보내며 고객은 MATCHESFASHION.COM으로부터 직접 환급받게 됩니다. 또한 관세 중개인이 고객의 이름으로 CBSA가 발행한 환불금을 전달할 수 있도록 허용하여 환급받을 수 있습니다.</p>
<p>호주, 바레인, 캐나다, 일본, 쿠웨이트, 사우디아라비아, 싱가포르, 아랍에미리트, 미국 본토, 카타르를 제외한 유럽 연합에 포함되지 않는 기타 국가로 상품이 배송되는 경우, (세금이 발생하는 경우에 한하여) 해당 지역의 수입세 납부는 고객의 책임입니다. 구매한 상품이 세관에 도착하여 비용이 부과되는 경우, 배송업체 측에서 고객에게 부과되는 비용을 전화로 안내합니다. 고객은 구매한 상품이 해당 국가의 세관을 통과하는 데 필요한 비용을 지불해야 할 의무가 있으며, 이로 인해 배송이 지연될 수 있습니다.</p>
<p>당사는 170여 개 국가로 배송 서비스를 시행하고 있으며, 주문 시점에서 고객이 거주하는 국가가 포함되지 않으면 상품 구매에 제약이 있을 수 있습니다.</p>
<p>당사는 고객이 선택한 상품을 고객이 결제 시에 제공한 장소 및 인명 앞으로 보내며 최단 시간 내에 최상의 상태로 배송할 수 있도록 노력합니다. 배송비는 목적지에 따라 다르게 부과됩니다. 배송비와 배송 시간은 배송 항목을 참고해 주십시오. 배송 시간은 참조용입니다. MATCHESFASHION.COM은 통관 문제로 인한 배송 지연에 대해서는 책임지지 않습니다. 모든 구매 상품은 고객에게 배송되기 전까지 당사가 운송 과정을 보증합니다. 운송 중인 상품을 추적하려면 고객에게 발송된 이메일 운송장 번호를 이용하거나 고객 서비스 센터로 이메일로 문의하면 배송 상황을 확인해 드립니다.</p>
<p>배송 기간으로 인한 물질적, 심리적 손실이 발생하지 않도록 주문부터 배송까지 걸리는 시간을 감안하여 상품을 주문하시길 바랍니다. MATCHESFASHION.COM은 이로 야기된 문제에 대해 책임지지 않습니다.</p>
<p>고객의 주문이 주문 시점에서 고지된 시간 내에 배송되지 않을 경우, 당사는 고객에게 그 사실을 고지하고 상황을 바로잡기 위해 노력할 것입니다.</p>
<p>새로운 주문은 개별 건으로 취급합니다.</p>
<p>MATCHESFASHION.COM 상에서 이루어진 온라인 구매가 결제 카드 소유자의 주소가 아닌 다른 곳으로 배달되면 (예: 친구의 주소로 선물을 보내는 경우) 주문 관련 이메일과 송장 사본은 카드 소유자가 등록한 이메일과 주소로 발송되고 배송이 완료되었다는 구매자의 서명을 요구하게 됩니다.</p>
<p>배송 관련 세부사항은 배송 섹션을 참고하십시오.</p>
<h4>3b. 반품 및 취소</h4>
<p>당사는 고객 만족을 최우선하며 고객의 문의를 최대한 성실하게 처리하기 위해 최선을 다합니다. 당사는 고객이 주문한 상품에 만족하기를 바라나 고객이 상품에 만족하지 않을 경우, 전액 환불 처리해 드립니다.</p>
<p>더욱 신속한 반품 처리를 위해 반품 관련 규정을 반드시 확인하시기 바랍니다.</p>
<p>모든 상품은 배송 시에 제공된 상자를 사용하여 반송되어야 합니다. 반송 과정 중 MATCHESFASHION.COM의 마블 패턴 박스가 훼손되지 않도록 기존에 제공된 DHL 비닐 백이나 상자를 사용하여 안전하게 포장해 주십시오.</p>
<p>고객은 주문한 날로부터 14일 이내에 반품을 요청할 수 있습니다. 반품 요청이 승인되면 온라인 및 이메일을 통해 반품 번호를 확인할 수 있습니다. 고유 반품 번호는 이메일을 통해 발송됩니다. 반품을 원하는 상품은 반품 번호를 받은 후 14일 이내에 반품되어야 합니다. 28일이 지난 상품에 대해서는 MATCHESFASHION.COM의 재량에 따라 반품 가능 여부가 결정됩니다. 반품할 상품은 착용 흔적이 없는 완벽한 상태여야 하며, MATCHESFASHION.COM 및 상품 태그가 모두 부착되어 있어야 합니다. 훼손되거나 변색된 상품 또는 상품 라벨이 없는 상품을 반품하시는 경우, 반품이 거부될 수 있으며 해당 상품이 고객님께 반송될 수 있습니다.</p>
<p>주문한 상품이 물류창고에서 발송되기 전까지는 당사의 포장 팀이 상품을 확인하고 관리합니다. 훼손된 상품을 수령하신 경우, 즉시 고객 서비스 센터로 연락해 주시기 바랍니다. 정품 보증 카드, 더스트 백, 가죽 태그가 동봉된 디자이너 브랜드 상품의 경우, 반품 시 반드시 함께 반송되어야 합니다.</p>
<p>슈즈의 경우, 흠집 또는 얼룩이 없어야 하며 훼손되지 않은 상태의 브랜드 박스에 보관된 상태로 반품되어야 합니다. 언더웨어, 수영복, 비키니 하의 등은 반드시 속옷을 입은 상태에서 착용해보시기 바랍니다. 끈이 떨어져 있거나 더러워진 상품은 반품이 거부될 수 있으며 해당 상품이 고객님께 반송될 수 있습니다.</p>
<p>수령한 상품에 하자가 있는 경우(예: 훼손 또는 제조상의 결함), 해당 상품을 수선 또는 교환해 드립니다. 자세한 사항은 고객 서비스 센터에 문의해주시기 바랍니다.</p>
<p>EU 외 국가로부터의 반품</p>
<p>EU 외 국가에 거주하는 고객에게는 견적 송장(Proforma Invoice)이 함께 발송됩니다. 견적 송장을 작성해 반품하실 상품과 함께 보내주셔야 합니다. 본 양식 내 상품 세부 사항 란에 반품하실 상품명 옆의 박스에 표시해 주십시오. 반품 번호 항목(Return Number section)에 발송된 반품 번호를 기재하고 서명해야 합니다. 반품이 완료되면 상품 구매 시 사용하셨던 계좌로 환불이 진행되고, 고객이 MATCHESFASHION.COM 크레딧을 사용한 경우 고객의 계정으로 해당 크레딧이 적립됩니다. 최초 부과되었던 배송비는 환불되지 않습니다. 결제 시 사용한 업체에 따라 처리 시간이 상이하므로, 고객의 계좌로 환불되기까지 영업일 기준 최대 10일이 소요될 수 있으며 MATCHESFASHION.COM 크레딧은 즉시 환불 처리되며 계정 정보에서 확인할 수 있습니다. 반품 절차에 대해 더 자세히 알고 싶거나 궁금한 점이 있으시면 고객 서비스 센터로 이메일<strong> <a href="""">customercare@matchesfashion.com</a></strong> 또는 전화 <strong><span>080-822-0307</span>번(한국어 및 영어 상담 가능, 365일 24시간 운영)</strong> 및 <strong><span>+44-20-7022-0828</span></strong>번(국제 전화 요금 적용)으로 문의해 주시기 바랍니다. 관세지급인도조건(DDP)에 따라 주문한 상품을 반품할 경우, 호주와 캐나다, 미국으로 배송된 주문에만 관세 및/또는 부가세가 환불됩니다.</p>
<p>당사의 반품 정책은 어떠한 방식으로든 고객의 법적 권리에 영향을 미치지 않습니다.</p>
<p><strong>법정 취소권(Statutory Cancellation Rights)</strong></p>
<p>EU 국가에 거주하는 고객은 2013 소비자 계약(정보, 취소 및 추가요금) 규정에 따라 주문을 취소할 권리가 있습니다.</p>
<p>상품을 수령한 날로부터 14일 이내에 주문을 취소할 수 있습니다.<span><b> </b></span></p>
<p>어떠한 이유로든 상품이 발송되기 전에 주문을 취소하고자 하는 경우, 고객 서비스 센터로 연락 주십시오. 주문 취소를 하려면 이메일 <strong><a href="""">customercare@matchesfashion.com</a></strong>로 당사로 취소 요청을 하셔야 합니다. 취소 양식 견본(본 섹션의 마지막에 첨부)을 사용할 수 있지만 의무 사항은 아닙니다. 주문이 취소되면 14일 이내에 배송비를 포함한 결제 금액을 전액 환불해 드립니다. (기본 배송 외의 추가금이 붙는 배송 옵션을 선택한 경우, 추가 비용은 제외됩니다.)</p>
<p>상품이 발송된 이후 주문을 취소하고자 하는 경우, 상품을 수령한 날로부터 14일 이내에 당사에 알려주셔야 합니다. 상기 명시된 대로 고객 서비스 센터로 이메일을 보내주십시오. 주문 취소가 접수되면, 고객은 그날로부터 14일 이내에 해당 상품을 반송해야 합니다. 이에 소요되는 반송 비용은 고객이 부담해야 합니다.</p>
<p>고객의 부주의로 상품에 손실이 생겼다고 판단되는 경우, 고객은 해당 상품의 가치 손실에 대한 변상을 해야 합니다.</p>
<p><strong>취소 양식 견본</strong></p>
<p>(주문을 취소하고자 하는 경우, 본 양식을 작성하여 보내주십시오.)</p>
<p>주소: The Shard, 32 London Bridge Street, London SE1 9SG, 이메일: customercare@matchesfashion.com</p>
<p>[*] 항목은 적절한 단어를 선택해 주십시오.</p>
<p>본인/우리[*]는 다음 상품의 판매 계약[*]/다음의 서비스[*]을/를 취소함을 고지합니다.</p>
<p>주문일[*]/수령일[*]</p>
<p>고객명:</p>
<p>고객 주소:</p>
<p>고객 서명(우편 발송의 경우에만 유효):</p>
<p>날짜:</p>
<h4>3c. 할인 코드</h4>
<p>당사는 비정기적으로 이메일 또는 홍보물을 통해 고객에게 프로모션 코드를 제공합니다.</p>
<p>무료 배송 코드는 기본 배송 옵션으로 적용됩니다. 신상품의 경우 기타 할인 코드가 적용되지 않은 정상가 상품일 경우에만 무료 배송 코드가 적용 가능합니다. 상기 나열된 모든 경우, 배송비만 무료입니다. 기타 관세나 부가세 등이 함께 청구될 수도 있습니다. 프로모션 코드 &ldquo;FREESHIP&rdquo;은 &pound;200/&euro;250/USD $300를 초과하는 모든 주문에 적용 가능합니다. 프로모션 코드 &ldquo;USAFREE&rdquo;는 미국으로 배송되는 주문에만 적용 가능합니다. 프로모션 코드 &ldquo;FREEAUS&rdquo;는 호주로 배송되는 주문에만 적용됩니다. MATCHESFASHION.COM에서 프로모션 코드는 중복 사용이 불가합니다.</p>
<p>각각의 코드는 양도될 수 없고, 금전적 가치를 지니지 않으며, 어떠한 경우에도 현금으로 전환될 수 없습니다. 각각의 코드는 만료일까지만 사용이 가능하며, 프로모션 당시에 제시된 날짜는 변경이 불가능합니다. 프로모션 코드는 온라인 혹은 오프라인에서 사용 가능할 수도 있고 온라인에서 유효한 코드로 명시된 경우 온라인 구매에만 적용됩니다. 상기의 내용은 프로모션 당시 관련 홍보물에 명시됩니다.</p>
<p>두 가지 이상의 상품이 포함된 주문에 프로모션 코드를 적용하는 경우, 각각의 상품에 동일한 비율로 할인이 적용됩니다. 프로모션 코드를 사용한 주문을 환불할 경우, 할인받은 만큼의 금액을 제외합니다. '할인 금액'은 환불되지 않습니다.</p>
<p>프로모션 코드의 사용 기한이 만료된 경우 혹은 사용에 문제가 있는 코드는 어떠한 경우에도 혜택이 적용되지 않으며 재발행되지 않습니다.</p>
<p>주문 건 당 하나의 할인 바우처만 사용이 가능합니다.</p>
<div separator="""">&nbsp;</div>
<h4>4. 신용카드</h4>
<p>MATCHESFASHION.COM의 상품은 온라인 또는 유선 상으로 유효한 신용/직불카드를 사용하여 주문이 가능합니다.</p>
<p>고객의 신용카드 회사에서 주문 처리를 위해 추가적인 보안 검사를 시행할 수 있습니다. 모든 신용/직불카드 소유자는 카드 발급 기관의 유효성 확인 및 승인을 받아야 합니다. 고객의 카드 발급 기관이 어떠한 이유로든 지불을 승인하지 않거나 거부하는 경우, 당사는 배송 지연 또는 배송 철회에 대해 책임지지 않습니다.</p>
<p>https://protect-eu.mimecast.com/s/pn1pBfR3RJtJ?domain=matchesfashion.com 계정 카드는 현재 온라인 구매에 사용할 수 없는 점 양해 부탁드리며, 빠른 시일 내에 사용 가능하도록 개선할 예정입니다.</p>
<div separator="""">&nbsp;</div>
<h4>5. 소유권 및 위험부담의 양도</h4>
<p>고객이 전액을 지불하고 당사가 해당 지불금을 수령할 때까지 해당 상품의 법적 소유권은 당사에 있습니다. 환불 처리가 완료되는 즉시 해당 상품의 법적 소유권은 고객에서 당사로 이전됩니다. 고객에게 상품을 발송하면 상품에 내재된 위험부담은 고객에게 양도됩니다.</p>
<div separator="""">&nbsp;</div>
<h4>6. 환불</h4>
<p>MATCHESFASHION.COM은 고객이 당사에서 판매하는 상품에 만족하기를 바랍니다. 온라인 구매 상품에 한해 당사는 미착용 및 미사용, 미손상 상품을 전액 환불해 드립니다.</p>
<div separator="""">&nbsp;</div>
<h4>7. 고객 문의</h4>
<p>주문과 관련해 도움이 필요하거나 궁금한 사항이 있거나, 혹은 당사의 서비스에 피드백을 주고자 하시는 경우 언제든지 전화 <strong><span>080-822-0307</span>번(한국어 및 영어 상담 가능, 365일 24시간 운영)</strong> 및 <strong><span>+44-20-7022-0828</span></strong>번(국제 전화 요금 적용) 또는 이메일 <strong><a href="""">customercare@matchesfashion.com</a></strong>으로 연락해 주시기 바랍니다. 일반 문의 사항은 customercare@matchesfashion.com을 통해 고객 지원 담당자에게 이메일을 보내주십시오.</p>
<div separator="""">&nbsp;</div>
<h4>8. 저작권 및 상표</h4>
<p>텍스트, 그래픽, 로고, 버튼, 아이콘, 이미지, 오디오 클립, 데이터 컴필레이션, 소프트웨어를 포함하는 웹사이트 상의 모든 콘텐츠(이하 &ldquo;콘텐츠&rdquo;)는 MATCHESFASHION.COM과 계열사, 협력사, 라이선스 제공자의 자산으로, 영국 및 국제 저작권법의 보호를 받습니다.</p>
<p>웹사이트 상의 상표, 로고 및 서비스마크(총칭하여 &ldquo;상표&rdquo;)는 영국 및 기타 국가에서 MATCHESFASHION.COM과 계열사, 라이선스 제공자 또는 협력사의 등록 및 미등록 상표로 영국 및 국제 상표법의 보호를 받습니다. 웹사이트 상에 게재되는 당사, 계열사, 협력사 또는 라이선스 제공자가 소유하지 않은 모든 상표는 해당 소유자의 자산이며 당사와 제휴 관계이거나 관련되어 있거나, 후원을 받는 기관일 수 있고, 또는 그렇지 않을 수도 있습니다.</p>
<p>아래의 &ldquo;제한된 라이선스&rdquo; 항목의 제한된 라이선스로 명시되거나 관련 법률에 따라 필요한 경우를 제외하고, 당사의 사전 서면 동의 없이 어떠한 콘텐츠, 상표, 웹사이트의 일부도 전체 또는 부분적으로 사용, 재생산, 복제, 복사, 판매, 재판매, 접근, 수정 또는 기타 방식으로 이용할 수 없습니다.</p>
<p>MATCHESFASHION.COM은 다른 어떤 상표와 관련하여 어떠한 보증이나 진술도 하지 않으며, MATCHESFASHION.COM 상의 DvF 카테고리에 포함된 브랜드의 상표와 그 외의 상표는 각 소유권자에 속합니다.</p>
<div separator="""">&nbsp;</div>
<h4>9. 제한된 라이선스(Limited Licence)</h4>
<p>당사는 고객에게 웹사이트에 접속하여 개인적으로 사용할 수 있는 제한적이고 취소 가능하며 비독점적인 라이선스를 부여합니다. 당사의 전적인 재량으로 보류 가능한 사전 서면 동의 없이는 웹사이트 전체 혹은 부분을 프레임 또는 링크하거나 프레임 또는 링크 기술을 사용할 수 없다는 점에 유의해 주십시오.</p>
<p>이 섹션의 제한된 라이선스는 다음의 권리는 포함하지 않습니다:</p>
<p>a) 웹사이트 또는 웹사이트의 콘텐츠를 수정하거나 다운로드할 권리(캐싱 또는 콘텐츠를 보는 데 필요한 경우 제외)</p>
<p>b) 개인적인 용도 외에 웹사이트나 콘텐츠를 사용할 권리</p>
<p>c) 웹사이트나 콘텐츠를 기반으로 파생물을 생성할 권리</p>
<p>d) 또 다른 당사자의 이익을 위해 계정 정보를 수집할 권리</p>
<p>e) 명시적 서면 동의 없이 당사의 이름 또는 상표를 사용하는 메타 태그 또는 기타 '숨겨진 텍스트'를 사용할 권리</p>
<p>f) 소프트웨어 로봇, 스파이더, 크롤러 또는 이와 유사한 데이터 수집 및 추출 도구를 사용하거나 당사 인프라에 부당한 부담을 줄 수 있는 행위를 할 권리</p>
<p>고객은 개인적이고 비상업적인 용도로만 웹사이트의 홈페이지에 연결된 하이퍼 링크를 만들 수 있는 제한적이고 취소 가능하며 비독점적인 권한을 부여받습니다. 당사 웹사이트에 링크된 웹사이트는 다음 내용이 가능합니다:</p>
<p>a) 당사의 콘텐츠에 링크(복제 불가)</p>
<p>b) 당사가 해당 웹사이트 또는 해당 서비스 및 상품을 보증 또는 추천한다는 것을 명시하는 행위 불가</p>
<p>c) 당사와의 관계를 왜곡 금지</p>
<p>d) 불쾌하고 외설적이며 공격적이거나 논란의 여지가 있는 콘텐츠를 포함하지 않으며, 모든 연령대에 적합한 콘텐츠만 포함 가능</p>
<p>e) 허위, 오해의 소지가 있거나 경멸적인 태도 또는 불쾌한 태도로 당사의 상품이나 서비스 묘사 금지 및 바람직하지 않은 상품이나 서비스, 의견을 당사와 결부 금지</p>
<p>f) 사전 서면 동의 없이 당사의 상표 사용 금지</p>
<p>g) 홈페이지 이외의 다른 웹페이지에 링크 금지. 당사의 단독 재량으로 웹사이트에 대한 링크를 제거하도록 요청할 수 있으며, 그러한 요청을 받으면 즉시 해당 링크를 제거해야 합니다.</p>
<p>웹사이트를 무단으로 사용하는 경우, 해당 법률에 의해 제공될 수 있는 기타 권리 침해에 대한 법적 구제와 관련 없이 본 섹션에 명시된 제한된 라이선스를 해지합니다.</p>
<div separator="""">&nbsp;</div>
"
termsAndConditionsPart2;"<h4>10. 제3자 링크</h4>
<p>당사는 웹사이트 외부 페이지 또는 당사 웹사이트에 링크된 다른 웹사이트의 내용에 책임을 지지 않습니다. 웹사이트 상에 나타나는 링크는 편의를 위한 것이며 참조된 콘텐츠, 상품, 서비스 또는 공급 업체에 대해 당사, 협력사 또는 계열사가 보증하지 않습니다. 웹사이트 외부 페이지 또는 다른 웹사이트에 링크하는 것은 고객의 책임입니다. 당사는 심사 또는 평가의 책임이 없으며, 웹사이트 외부 페이지 또는 당사 웹사이트에 링크된 다른 웹사이트에서 제공하는 내용을 보증하지 않으며, 해당 행위 및 콘텐츠, 상품에 대해 당사는 어떠한 책임이나 의무도 지지 않습니다. 또한 당사는 해당 사이트의 개인 정보 보호 정책 및 약관을 포함하여 해당 웹사이트 및 페이지의 조치, 콘텐츠, 상품 또는 서비스에 대한 어떠한 책임이나 의무도 지지 않습니다. 방문하는 모든 외부 페이지 및 기타 웹사이트의 이용 약관 및 개인 정보 취급 방침을 주의 깊게 검토하시기 바랍니다.</p>
<div separator="""">&nbsp;</div>
<h4>11. 제출물</h4>
<p>구매를 원하거나 사용하는 상품에 대한 문의 또는 의견을 환영합니다. 그러나 당사의 방침에 따라 원치 않는 제안 및 아이디어를 거부할 수 있습니다. 원치 않는 제안 및 아이디어에 관한 당사의 정책에도 불구하고, 고객이 제공한 모든 문의 사항, 의견, 제안, 아이디어 또는 기타 정보 (통칭하여 &ldquo;제출물&rdquo;)는 비독점적이며 공개적으로 취급됩니다. 당사의 개인 정보 보호 정책의 조항에 따라, 제출물을 전송하거나 게시함으로써 고객은 본인이 제출한 정보를 당사가 (현재 사용 가능 또는 향후 개발 여부와 관계없이) 어떠한 형식, 미디어, 기술을 통해 단독으로 혹은 다른 저작물의 일부로 제출물을 사용, 복제, 수정, 개조, 출판, 판매, 양도, 번역, 파생물 생성, 배포, 전시할 비독점적이고, 사용료가 없으며, 양도가 가능한 완전한 권리를 양도하는 것입니다. 또한 고객은 제출물이 반환되지 않을 수 있음을 사전에 인지하며, 당사는 고객의 제출물과 그 안에 포함된 아이디어, 개념 혹은 노하우를 상품의 개발, 제조, 배포 및 마케팅을 포함하되 이에 국한되지 않는 목적으로 사용할 수 있습니다.</p>
<p>제출물을 작성하는 경우, 고객은 제출물에 대한 권리를 갖거나 통제할 수 있다는 것을 표명하고 보증합니다. 또한 고객은 그러한 제출물에 소프트웨어 바이러스, 상업적 권유, 연계 서신, 대량 우편물 또는 어떠한 형태의 '스팸'도 포함하지 않는다고 표명하고 보증합니다. 허위 이메일 주소를 사용하거나 다른 사람 또는 단체를 사칭하거나 제출물의 출처에 관해 당사를 오도할 수 없습니다. 제출물에 내포된 모든 권리와 관련하여 고객의 주장으로 발생하는 모든 배상 청구에 대해 당사의 법적 책임을 완전히 면제한다는 것에 동의합니다.</p>
<div separator="""">&nbsp;</div>
<h4>12. 고객에 대한 당사의 책임</h4>
<h4>
   <p style="""">고객은 이 웹사이트를 통해 주문한 상품의 품질이 만족스럽고, 의도된 목적에 부합하며, 고객의 주문과 웹사이트에 명시된 설명에 부합한다는 것에 대해 법률에 따라 특정 권리를 갖습니다.</p>
   <p style="""">당사가 이 약관을 준수하지 않을 경우, 당사는 약관 위반이나 과실로 인해 예상되는 손실이나 손해에 대해 책임을 지지만, 예측할 수 없는 손실이나 손해에 대해서는 책임을 지지 않습니다. 당사의 위반으로 인한 명백한 결과이거나 본 약관을 체결한 시점에서 고객과 당사에 의해 예상된 손실이나 손해는 예측 가능한 것으로 봅니다.</p>
   <p style="""">당사는 상품 및 웹사이트 사용과 기타 서비스를 국내용, 사적인 용도로만 제공합니다. 고객은 당사가 제공한 상품 및 웹사이트, 기타 서비스를 상업적, 사업상 또는 재판매 목적으로 사용하지 않을 것에 동의하며, 수익 손실, 사업상 손실, 사업 중단 또는 사업 기회 손실에 대해 당사는 어떠한 책임도 지지 않습니다. 또한 제3자 웹사이트로/로부터 연결되는 하이퍼 링크를 포함하여, 웹사이트 사용과 관련하여 발생할 수 있는 컴퓨터 바이러스, 시스템 오류 또는 오작동에 대해 어떠한 상황에서도 당사가 책임지지 않음에 동의합니다.</p>
   <p style="""">어떠한 경우에도 당사의 최대 총 책임은 100 파운드(&pound;100.00) 또는 고객이 이의를 제기한 상품에 대해 고객이 지불한 금액을 초과하지 않습니다. 일부 국가에서는 파생적 또는 부수적 손해에 대한 책임의 배제나 제한을 허용하지 않으므로 해당 국가에서는 당사의 책임이 해당 국가의 법률이 허용하는 최대한의 범위로 제한됩니다. 본 조항에 명시된 어떠한 보증도 고객의 법적 권리에 영향을 미치지 않습니다.</p>
   <p style="""">당사는 어떠한 경우에도 다음과 같은 일에 대한 당사의 책임을 배제하거나 제한하지 않습니다. (i) 당사의 과실로 인해 야기된 사망 또는 개인 상해, (ii) 사기 또는 허위 진술, (iii) 1979 물품 매매법 12조 (소유권 및 남에게 방해받지 않는 소유권) 위반, (iv) 1979 물품 매매법 제13-15조 (상품 설명, 만족스러운 품질, 목적 적합성) 위반, (v) 1987 소비자 보호법에 의거한 결함 상품, (vi) 법으로 배제할 수 없는 기타 책임</p>
</h4>
<div separator="""">&nbsp;</div>
<h4>13. 분쟁</h4>
<p>해당 법률이 허용하는 최대 한도 내에서 MATCHESFASHION.COM 웹사이트 방문 및 구입한 상품과 관련된 모든 분쟁은 런던의 기밀 중재소에 제출되어야 하며, 고객이 당사의 지적 재산권을 침해하거나 위협하는 경우에는 당사가 영국 법원을 통해 금지 명령이나 기타 적절한 구제 조치를 취할 수 있고, 고객은 해당 법원에서 배타적 관할권 및 재판지에 동의해야 합니다. 본 계약에 따른 중재는 국제 상공 회의소의 규정에 따라 시행됩니다. 중재인의 판정은 구속력을 가지며 관할 법원에 판결로 제출될 수 있습니다. 관련 법에서 허용하는 최대 한도 내에서, 본 계약에 따른 중재는 집단 소송 절차 또는 기타 방법을 통한 것이든 상관없이 본 계약의 적용을 받는 다른 당사자와 관련된 중재에 개입하지 않습니다. 해당 법률에 의해 중재가 허용되지 않는 범위 내에서 고객의 웹사이트 방문과 관련된 모든 분쟁은 런던의 적절한 법원이나 기타 사법 기관에 제출되어야 하며 본 섹션의 모든 해당 조항이 적용됩니다.</p>
<div separator="""">&nbsp;</div>
<h4>14. 일반</h4>
<p>고객은 본 약관 및 당사의 개인 정보 보호 정책이 MATCHESFASHION.COM의 상품 구매 및 고객의 웹사이트 사용에 대한 전적이고 독점적인 계약을 구성하며, 모든 이전 제안, 계약, 또는 기타 커뮤니케이션을 대체하여 적용된다는 것을 인지하고 동의합니다.</p>
<p>본 약관의 어떤 조항이 전체 혹은 부분적으로 불법이거나 무효이거나 집행 불가능하다고 간주될 경우에도 본 약관의 다른 조항 및 해당 조항의 나머지 조항은 유효합니다. 당사가 본 약관의 어떠한 조항을 포기해도 이후의 위반이나 불이행에 대한 포기로 간주되지 않으며 본 약관의 다른 조항에 영향을 미치지 않습니다.</p>
<p>본 계약에 따라 당사자가 권리, 구제책, 권한 또는 특권을 행사함에 있어 어느 한 당사자가 행사하지 않은 채 지연할 수 없고, 양 당사자 간의 거래 과정이 해당 권리 포기로 해석되어서는 안되며, 구제 수단과 권한의 일부 또는 전부를 행사하거나 다른 권리, 구제 수단, 권한 또는 특권을 행사하지 못하게 하는 행위로 해석되어서도 안됩니다. 본 약관에 의해 제공되는 권리 및 구제 수단은 누적되며 법률이 제공하는 권리 또는 구제 수단을 배제하지 않습니다. 시간은 여기에 언급된 시간, 날짜 및/또는 기간과 관련하여 본 약관의 핵심 내용이 되어서는 안됩니다.</p>
<p>본 약관에 포함된 내용은 어떠한 기관, 파트너십 또는 기타 형태의 공동 기업을 창설하는 것으로 해석되어서는 안됩니다.</p>
<p>당사는 언제든지 본 약관을 변경할 수 있는 권리를 가지며, 고객이 본 약관의 내용을 충분히 숙지할 수 있도록 주기적으로 본 약관을 읽어보기를 권장합니다. 모든 변경 사항은 웹사이트에 게재됨과 동시에 즉시 효력이 발생합니다. 웹사이트를 계속 이용하시면 고객은 모든 약관에 동의하는 것으로 간주됩니다.</p>
<p>당사는 사전 통보 여부와 관계없이 본 약관에 의해 부여된 권리를 철회할 수 있습니다. 이에 해당되는 경우, 웹사이트의 모든 사용을 중단하는 등 해지 또는 기타 고지를 즉시 준수해야 합니다.</p>
<p>당사는 어떤 이유로든 개인에게 상품을 공급하는 것을 거부할 권리, 언제든지 웹사이트에서 상품을 철회하거나 웹사이트 상의 자료나 내용을 제거 또는 편집할 권리를 갖습니다. 당사는 상품의 판매 여부와 관계없이 본 웹사이트에서 해당 상품을 철회, 웹사이트에서 콘텐츠 삭제 또는 편집, 거래 거부 및 거래 프로세스가 시작된 후 거래 중단 또는 해지를 이유로 고객이나 제3자에게 책임을 지지 않습니다.</p>
<p>본 약관과 관련해 궁금한 점이 있으시면 고객 서비스 센터로 이메일 <strong><a href="""">customercare@matchesfashion.com</a></strong>을 통해 문의하시기 바랍니다.</p>
<div separator="""">&nbsp;</div>
<h4>15. 준거법</h4>
<p>MATCHESFASHION.COM의 상품 구매 및 웹사이트 사용은 영국 법에 의해 규율되며 이와 관련 해당 고객은 영국 법원의 독점적 관할권을 적용받습니다.</p>
<div separator="""">&nbsp;</div>
<h4>16. 기프트 카드</h4>
<h4>
   <p style="""">MATCHESFASHION.COM 기프트 카드는 다음 조건에 따라 판매됩니다.</p>
   <p style="""">a) 기프트 카드는 구입일로부터 12개월 동안 유효합니다.</p>
   <p style="""">b) 기프트 카드는 MATCHESFASHION.COM의 모든 상품에 사용 가능합니다.</p>
   <p style="""">c) 기프트 카드는 반품 또는 환불, 양도가 불가능합니다.</p>
   <p style="""">d) 기프트 카드는 직불카드 또는 신용카드로만 구매할 수 있습니다. 계정 적립금으로는 기프트 카드를 구입할 수 없습니다.</p>
   <p style="""">e) 주문 금액이 기프트 카드 한도를 초과하는 경우 남은 잔액은 신용카드나 직불카드로 결제해야 합니다.</p>
   <p style="""">f) 기프트 카드를 사용하여 구입한 상품을 반환할 경우 잔액은 적립금으로 반환되며 이후의 주문에 사용할 수 있습니다.</p>
   <p style="""">g) 기프트 카드의 분실, 도난, 폐기나 소유자의 허가 없이 사용한 경우와 관련해 MATCHESFASHION.COM에서는 책임지지 않습니다.</p>
   <p style="""">h) MATCHESFASHION.COM은 그러한 조치가 필요하다고 판단될 경우 기프트 카드를 취소할 권리가 있습니다.</p>
   <p style="""">i) 기프트 카드는 관세 및/또는 부가 면제 상품입니다.</p>
   <p style="""">j) 기프트 카드만 주문할 경우 배송비가 부과되지 않습니다.</p>
   <p style="""">k) 고객이 다른 상품과 함께 기프트 카드를 한 장 또는 여러 장 구매하는 경우 무료 배송 프로모션 기간을 제외하고 일반 배송비가 부과됩니다.</p>
   <p style="""">l) 기프트 카드 구매 시에는 무료 배송 프로모션 외에 다른 쿠폰이 적용되지 않습니다.</p>
</h4>
<h4>
   <p style="""">&nbsp;</p>
</h4>
<h4>17. 소셜 미디어</h4>
<h4>
   <p><span style="""">고객은 당사 웹사이트 상에 자신의 사진 및/또는 비디오를 업로드할 수 있으며 웹사이트 갤러리에 해시태그 #MATCHESFASHION 또는 #MATCHESMAN이 포함된 사진과 영상을 인스타그램 및 트위터에 게재할 수 있습니다. 웹사이트에 업로드되거나 제출물로 제공된 콘텐츠가 당사에 의해 선택되면 웹사이트 상에서 보이거나 본 약관에 명시된 대로 다른 사용자가 볼 수 있도록 당사자의 이름, 연결된 인스타그램 또는 트위터 계정 정보(프로필 사진 등)와 함께 실릴 수 있습니다. MATCHESFASHION.COM은 웹사이트 등에 사진 또는 비디오를 게시할 의무는 없지만 단독 재량으로 게시할 수 있습니다. </span><span style=""""><br/></span></p>
   <p><span style="""">트위터 또는 인스타그램에 상기 나열된 해시 태그 중 하나를 사용하여 사진을 업로드하거나 제출하면 MATCHESFASHION.COM 웹사이트 갤러리에 해당 사진이 게시될 수 있다는 사실을 인지하고 동의한 것으로 간주합니다. MATCHESFASHION.COM은 단독 재량으로 사진을 선택할 수 있습니다. 의심의 여지를 피하기 위해, MATCHESFASHION.COM은 제출된 사진을 반드시 사용할 의무가 없습니다.</span></p>
   <p><span style="""">사진을 업로드하면 해당 사진에 대한 권리가 유지됩니다. 사진을 업로드하면 고객은 MATCHESFASHION.COM에 사진 및/또는 이미지를 비독점적으로 로열티를 지불하지 않고 양도 가능하며 재 라이선스가 가능하도록 사용, 편집, 변경, 복제, 번역, 출판, 배포하거나 MATCHESFASHION.COM 웹사이트, 애플리케이션, 이메일, 소셜미디어 채널, 혹은 기타 상품 및 서비스(총칭하여 &ldquo;서비스&rdquo;) 관련 다른 작업에 포함해 추가적인 보상이나 사전 통지 없이 모든 종류의 미디어나 (현재 가능하거나 추후 개발될 수 있는) 배포 방식을 통하여 광고, 마케팅 및/또는 홍보자료로 쓸 수 있는 권리를 당사에 부여하는 것입니다. 당사는 또한 고객의 성명, 인스타그램 혹은 트위터 계정, 페이스북 아이디, 프로필 사진, 이미지, 좋아요 현황, 코멘트, 게시물 또는 기타 정보를 추가 통지나 보상 없이 단독으로 혹은 다른 작업의 일부로 현재 가능하거나 향후 개발될 모든 형태의 미디어나 기술을 사용해 게시할 권리를 갖습니다.</span></p>
   <p><span style="""">고객은 본 라이선스가 본인의 사진이 전 세계 MATCHESFASHION.COM의 서비스 상에서 보일 수 있음을 의미하며 다른 사용자(개인 및 회사)도 소셜 미디어 플랫폼 또는 기타 서비스에서 본인의 사진을 공유하고 사용할 수 있음을 의미한다는 것을 이해하고 있어야 합니다. 또한 사용자는 핀터레스트, 트위터 및 페이스북 갤러리에 직접 본인의 사진을 공유할 수 있습니다. MATCHESFASHION.COM은 제출물이 부적격하거나 제출 요건을 충족시키지 못하더라도 각 제출물에 부여된 권리를 보유합니다. 상기 명시된 권한을 당사에 부여하는 것을 원치 않으면 사진을 업로드하거나 공유하지 마십시오.</span><span style=""""><br/></span></p>
   <p><span style="""">고객이 사진을 업로드하는 것은 고객이 상기 명시된 라이선스를 부여할 권리가 있음을 명시하고 증명하며 해당 내용을 이해하고 있는 것으로 간주됩니다. 특히 MATCHESFASHION.COM 및 기타 서비스 이용자가 사진을 사용할 수 있도록 사진에 등장하는 모든 사람들, (그리고 만 18세 미만인 경우 부모 및/또는 보호자)의 허락을 사전에 받았음을 의미합니다. 법이 허용하는 한도 내에서 고객은 업로드된 모든 사진과 관련하여 본인의 도덕적 권리를 포기하는 것에 동의합니다.</span></p>
   <p><span style="""">고객이 제출물을 업로드할 때, 고객의 행위가 해당 제출물이 비독점적이고 기밀이 아니며 일반 대중에게 공개될 수 있고, 제한 없이 MATCHESFASHION.COM에 사용될 수 있음을 고객이 인정하고 동의한 것으로 간주됩니다. 고객은 MATCHESFASHION.COM을 통한 본인의 제출물이 적용 가능한 모든 법률, 규칙 및 규정, 인스타그램 이용 약관, 트위터 서비스 약관 및 본인을 대상으로 하는 제3자 계약을 준수함을 인정하고 보증합니다. 관련 법에서 허용하는 최대 한도 내에서 고객은 당사가 본 약관에 따라 제출물을 사용하는 과정에서 직, 간접적으로 발생한 관련 법이나 법적인 이론 하의 저작권 및 상표권 침해, &ldquo;도덕적 권리&rdquo; 의 침해, 명예훼손, 사생활 보호권 침해, 초상사용권, 사생활 공개, 신체적 정신적 피해나 고통 혹은 비슷한 주장 및 소송(&ldquo;주장&rdquo;)이 MATCHESFASHION.COM 혹은 타인의 부주의에 의해 발생했을 때, 그에 대한 법적 책임, 권리, 요구, 조치, 소송, 손해 배상에 관련된 모든 법적 권리 및 그에 준하는 권리를 포기하고, 자회사, 계열사, 라이선스 소지사, 라이선스 제공자 및 임원, 책임자, 직원, 후계자, 대리인 및 양도인에게 그러한 청구를 하거나 이의를 제기하지 않기로 동의하고 당사자를 영원히 면책 청구합니다. 본 조항은 어떤 이유로든 본 계약이 해지된 이후에도 효력을 유지합니다.</span></p>
   <p><span style="""">갤러리에 사진을 업로드하는 방법에 따라 소셜 미디어 서비스와 연동할 수 있는 기능을 제공할 수 있습니다. 이러한 기능을 통해 소셜 미디어 서비스 및 해당 서비스의 프로필 통합 및/또는 접근을 활성화하거나 해당 서비스의 개인 정보가 사용되는 방식에 대한 규칙을 설정할 수 있습니다. MATCHESFASHION.COM이 아닌 고객과 소셜 미디어 제공 업체가 이러한 문제를 관리합니다. 해당 소셜 미디어 서비스에 대한 모든 정책과 정보를 읽어보고 이러한 기능을 사용하기 전에 해당 서비스사가 정보를 처리하는 방법에 대해 자세히 알아보시기 바랍니다. 당사는 모든 소셜 미디어 서비스 제공 업체의 행위 또는 태만 및 해당 플랫폼의 기능 사용에 대한 책임에서 면제됩니다.</span></p>
   <p>&nbsp;</p>
</h4>
<h4>18. 영국 소재 그룹 자회사, 계열사 대상 조세 전략</h4>
<p>본 항목은 MATCHESFASHION.COM 그룹의 영국 소재 자회사/계열사에 적용되는 조세 전략 및 세금 납부의 의무 이행, 세무 신고와 절세 계획에 대한 내용을 담고 있으며, 영국 재정법(Finance Act 2016)의 부칙 제19조 2부에 의거한 법적 의무를 준수하고 있습니다.</p>
<h4>조세 전략</h4>
<h4>
   <p style=""font-weight: 400;"">조세 전략의 최우선 원칙은 정확한 시기에 정확한 세무 기관으로 정확한 금액의 세금을 납부하는 것입니다. 당 원칙의 공고화를 위해 다음과 같은 조세 목표를 수립하였습니다.</p>
   <p style=""""><span style=""font-weight: 400;"">(i) 세무와 관련된 법과 규칙을 준수하며, 세법의 조문 해석뿐 아니라 법에 담긴 의도 또한 준수합니다. </span></p>
   <p style=""""><span style=""font-weight: 400;"">(ii) 영국 관세청(HMRC) 및 해외 세무 기관과 투명하고 협력적인 관계를 유지합니다. 잠재적 문제 논의 및 조세 상황의 명확화를 위해 선제적으로 관세청과 연락합니다. </span></p>
   <p style=""""><span style=""font-weight: 400;"">(iii) 세무 신고 및 조세 납부는 정확한 방법으로 기한 내에 이행합니다. </span></p>
   <p style=""""><span style=""font-weight: 400;"">(iv) 균형 잡힌 접근법을 통해 절세 계획을 수립하고 절세 혜택만을 목적으로 한 거래는 이행하지 않습니다. MATCHESFASHION.COM은 조세 회피를 지양하며, 기업의 상업적 수요에 기반한 효율적인 운영을 지향하고 적절한 기업 구조를 갖추고 있습니다. </span></p>
   <p style=""""><span style=""font-weight: 400;"">(v) 그룹 자회사/계열사 간 거래는 거래 당사자가 상호 동등한 관계라는 원칙 하에 이행합니다.</span></p>
</h4>
<h4>조세위험 관리</h4>
<h4><p style=""font-weight: 400;"">그룹의 조세 부문 임원(Taxation Manager)이 일자 별로 그룹 내부의 조세위험을 관리하고 있습니다. 조세 전략의 이행과 통제는 이사회의 단독 책임입니다.</p><p style=""font-weight: 400;"">적합한 역량 및 경력을 지닌 세무 전담팀을 운영하고 있으며 해당 팀에서 조세 관련 결정을 내립니다. 세무팀은 사업부와 협력하여 위험요소를 파악 및 관리하고 기업 내 모든 부문에 적용할 수 있는 정확한 세무 관련 절차를 수립하고 있습니다. 복잡한 세무 관련 위험 발생 시, 외부 조세 전문가의 컨설팅을 받아 세법 및 세무 신고 요건을 준수하고 있습니다. 규모가 작은 조세위험에도 엄격한 원칙을 적용하고 있으며, 조세 의무를 성실히 이행하고자 합니다.</p></h4>
<p>&nbsp;</p>
<div class=""separator border-bottom"">&nbsp;</div>
<h4>19. 이벤트</h4>
<p style=""font-weight: bold;"">주요 약관</p><p style=""font-weight: 400;""><ul style=""margin-left: 20px;"">
<li><p style=""font-weight: 400;"">본 이벤트는 그리니치 표준시 기준 10월 30일 화요일 오전 9시부터 12월 9일 일요일 오후 11시 59분까지 진행됩니다. 이벤트 마감일 이후의 접수분은 무효 처리됩니다. </p></li>
<li><p style=""font-weight: 400;"">MATCHESFASHION.COM 온라인 계정 내 위시리스트에 상품을 추가한 후 이벤트 마감일 전까지 해당 위시리스트를 <strong><a href=""mailto:gifts@matchesfashion.com"">gifts@matchesfashion.com</a></strong>로 공유하면 응모가 완료됩니다.</p></li>
<li><p style=""font-weight: 400;"">이벤트에 응모한 고객 중 1명을 무작위 추첨하여 £5,000 (혹은 기타 특정 결제 통화의 경우 제5.1항에 규정된 금액) 상당의 MATCHESFASHION.COM 크레딧을 지급합니다. 크레딧은 오프라인 및 온라인에서 상품 구매 시 사용 가능하며, 12월 16일 일요일부터 12개월간 유효합니다.</p></li>
</ul></p><p style=""font-weight: bold;"">이용 약관</p><p style=""font-weight: bold;"">1. 이벤트 주최자</p><p style=""font-weight: 400;"">본 이벤트의 주최자는 Matchesfashion Limited이며 주소지는 The Shard, 32 London Bridge Street, London SE1 9SG (Matchesfashion)입니다.</p><p style=""font-weight: bold;"">2. 위시리스트 공유 이벤트</p><p style=""font-weight: 400;"">본 이벤트에 응모하여 당첨된 고객에게는 온라인 및 오프라인에서 상품 구매 시 사용 가능한 £5,000 (혹은 기타 특정 결제 통화의 경우 제5.1항에 규정된 금액) 상당의 MATCHESFASHION.COM 크레딧을 계정에 적립해 드립니다. </p><p style=""font-weight: bold;"">3. 참여 방법</p><p style=""font-weight: 400;"">3.1 본 이벤트는 그리니치 표준시 기준 10월 30일 화요일(이하 “시작일”) 오전 9시부터 12월 9일 일요일(이하 “마감일”) 오후 11시 59분까지 진행됩니다.</p><p style=""font-weight: 400;"">3.2 이벤트에 참여하고자 하는 고객은 반드시 마감일 오후 11시 59분 전까지 화면에 나타난 지시에 따라 위시리스트를 생성하고 <strong><a href=""mailto:gifts@matchesfashion.com"">gifts@matchesfashion.com</a></strong>과 공유해야 합니다. 마감일 이후의 접수분은 자동 탈락됩니다. </p><p style=""font-weight: 400;"">3.3 이벤트 응모 방법</p><p style=""font-weight: 400;"">(a) MATCHESFASHION.COM에 로그인하거나 회원 가입을 합니다.</p><p style=""font-weight: 400;"">(b) 상품 페이지를 이동하면서 “위시리스트 담기” 버튼을 클릭하여 마음에 드는 상품을 위시리스트에 담습니다. 위시리스트에 이미 상품이 있는 상태라면 이벤트 기간에 새로운 상품을 하나 이상 추가해야만 합니다. </p><p style=""font-weight: 400;"">(c) 위시리스트의 상품을 선택하고 이메일 주소란에 <strong><a href=""mailto:gifts@matchesfashion.com"">gifts@matchesfashion.com</a></strong>을 입력한 후, 마감일 전까지 “선택한 상품 공유하기”를 클릭하여 위시리스트를 공유합니다.</p><p style=""font-weight: 400;"">3.4 본 이벤트 응모를 위해 상품을 구매할 필요는 없으며, 회원 가입과 계정 이용은 무료입니다.</p><p style=""font-weight: 400;"">3.5 MATCHESFASHION.COM은</p><p style=""font-weight: 400;"">(a) 우편배달 사고, 장비 고장, 기술 결함, 시스템, 위성, 네트워크, 서버, 컴퓨터 하드웨어 혹은 소프트웨어의 고장 등의 결과로 전송 중 유실, 오류, 손상 혹은 지연된 응모분에 대해서는 이유 여하를 막론하고 책임지지 않으며, </p><p style=""font-weight: 400;"">(b) 전송 증명을 이벤트 응모 접수가 완료되었다는 증거로 인정하지 않습니다.</p><p style=""font-weight: 400;"">3.6 이벤트에 응모하는 경우 본 이용 약관에 동의한 것으로 간주합니다.</p><p style=""font-weight: 400;"">3.7 본 이용 약관의 사본이 필요한 경우 www.matchesfashion.com에서 확인하시거나, 주소를 기재하고 우표를 붙인 반송용 봉투와 함께 약관 요청서를 Matchesfashion Limited of The Shard, 32 London Bridge Street, London SE1 9SG로 보내주십시오. 이벤트 응모와 관련해 도움이 필요하시면 고객 서비스 센터로 문의해주시기 바랍니다. <strong><a href=""mailto:customercare@matchesfashion.com"">customercare@matchesfashion.com</a></strong> </p><p style=""font-weight: 400;"">3.8 당첨자는 2018년 12월 11일 화요일에 추첨할 예정입니다.</p><p style=""font-weight: bold;"">4. 응모 자격</p><p style=""font-weight: 400;"">4.1 만 18세 이상의 고객은 누구나 본 이벤트에 응모 가능하며, 단</p><p style=""font-weight: 400;"">(a) MATCHESFASHION.COM이나 그 지주 회사 혹은 계열사의 직원,</p><p style=""font-weight: 400;"">(b) MATCHESFASHION.COM이나 그 지주 회사 혹은 계열사의 대리 업체나 공급 업체 소속 직원으로서 본 이벤트나 이벤트 행정에 관련되어 있는 사람,</p><p style=""font-weight: 400;"">(c) 위 (a)항과 (b)항에 해당하는 사람의 직계 가족이나 가구원은 응모가 불가능합니다.</p><p style=""font-weight: 400;"">4.2 이벤트에 응모하는 고객은</p><p style=""font-weight: 400;"">(a) 본인이 거주 국가에서 합법적으로 이벤트에 응모할 수 있으며</p><p style=""font-weight: 400;"">(b) 이벤트 응모 및 상금 수령을 할 수 있는 자격이 있음을 확인하는 것으로 간주합니다. MATCHESFASHION.COM은 이벤트 응모 자격 여부를 확인하기 위해 응모자에게 증거를 요구할 수 있습니다.</p><p style=""font-weight: 400;"">4.3 MATCHESFASHION.COM은</p><p style=""font-weight: 400;"">(a) 컴퓨터로 자동 생성된 응모 접수분,</p><p style=""font-weight: 400;"">(b) 제3자에 의해 생성되거나 대량으로 생성된 응모 접수분,</p><p style=""font-weight: 400;"">(c) 부적격, 변경, 재생성, 위조, 또는 조작된 응모 접수분, 혹은</p><p style=""font-weight: 400;"">(d) 미완성된 응모 접수분은 인정하지 않습니다.</p><p style=""font-weight: 400;"">4.4 위시리스트에 담을 수 있는 상품의 수에는 제한이 없으나 이벤트에는 계정당 위시리스트 하나만 응모 가능합니다. 한 사람이 계정을 여러 개 생성해서 이벤트에 여러 번 응모했다는 의심이 드는 경우 해당 응모자는 자격이 박탈될 수 있으며, 해당 응모자가 1등으로 선정되는 경우 당첨을 취소하고 다른 당첨자를 선택할 수 있습니다.</p><p style=""font-weight: 400;"">위시리스트에 담은 상품이 재고 부족으로 인해 자동으로 삭제된 경우 이벤트에 응모한 내역은 유효합니다.</p><p style=""font-weight: 400;"">4.6 MATCHESFASHION.COM은 응모자의 행위가 본 이벤트의 의도에 부합하지 않는 경우 해당 응모자의 자격을 박탈할 모든 권리를 보유하고 있습니다.</p><p style=""font-weight: bold;"">5. 상금</p><p style=""font-weight: 400;"">5.1 본 이벤트의 상금은 오프라인 및 온라인에서 사용 가능한 <strong>GBP£5,000 / EUR€5,000 / US$5,000 / HK$50,000 / AUD$5,000 상당의 MATCHESFASHION.COM 크레딧입니다.</strong> 상금 크레딧의 결제 통화는 당첨자가 이벤트에 응모한 MATCHESFASHION.COM 웹사이트의 국가 설정에 따라 결정됩니다. </p><p style=""font-weight: 400;"">5.2 상금은 현금으로 대신 수령할 수 없으며, 협상 및 양도 불가합니다.</p><p style=""font-weight: 400;"">5.3 상금 크레딧은 그리니치 표준시 기준 12월 16일 일요일 오후 11시 59분에 당첨자의 MATCHESFASHION.COM 계정으로 자동 적립되며, 발급 시점으로부터 12개월간 유효합니다(제7항 상금 사용 참고). </p><p style=""font-weight: bold;"">6. 당첨자 고지 및 상금 수령</p><p style=""font-weight: 400;"">6.1 MATCHESFASHION.COM의 당첨자 선정은 최종적인 것으로 추후 변경되지 않으며, 선정 과정에 서신 및 논의를 통한 개입은 불가합니다.</p><p style=""font-weight: 400;"">6.2 MATCHESFASHION.COM은 마감일 이후 가능한 가장 빠른 시일 내에 당첨자가 계정 생성 시 입력한 이메일로 당첨 사실을 직접 고지합니다. </p><p style=""font-weight: 400;"">6.3 당첨자는 상금 수령을 따로 신청하지 않아도 됩니다. 상금 크레딧이 그리니치 표준시 기준 12월 16일 일요일 오후 11시 59분에 당첨자의 계정에 자동 적립됩니다.</p><p style=""font-weight: bold;"">7. 상금 사용</p><p style=""font-weight: 400;"">7.1 상금은 MATCHESFASHION.COM의 오프라인 및 온라인 매장에서 상품 구매 시 사용 가능합니다. 당첨자는 이벤트 응모를 위해 위시리스트에 담았던 상품을 반드시 구매하지 않아도 됩니다.</p><p style=""font-weight: 400;"">7.2 상금 크레딧은 현금으로 환불 또는 교환할 수 없습니다.</p><p style=""font-weight: 400;"">7.3 크레딧 잔고는 온라인 계정이나 오프라인 스토어, 혹은 고객 서비스 센터080 822 0307 또는 +44 (0)20 7022 0828로 전화해 확인할 수 있습니다. 상금을 사용해 상품을 구매하는 경우 구매 금액만큼 크레딧 잔고에서 차감됩니다. 상금 크레딧을 사용한 구매는 12개월의 유효기간 중 어느 때나 가능합니다. 유효기간이 만료될 때까지 사용하지 않은 상금 크레딧은 계정에서 사라집니다.</p><p style=""font-weight: 400;"">7.4 당첨자가 상금 크레딧으로 구매한 상품을 반품하는 경우, 반품한 상품의 가격만큼 크레딧이 재적립됩니다. </p><p style=""font-weight: 400;"">7.5 MATCHESFASHION.COM은 12개월의 유효기간 내에 사용하지 않은 상금 크레딧 전체 혹은 일부에 대해 어떠한 책임도 지지 않습니다.</p><p style=""font-weight: bold;"">8. 데이터 보호 및 홍보</p><p style=""font-weight: 400;"">8.1 MATCHESFASHION.COM은 https://www.matchesfashion.com/privacy-policy에 게재된 개인 정보 보호 정책을 준수하여 응모자의 개인 정보를 처리합니다. </p><p style=""font-weight: 400;"">8.2 본 이용 약관에서, 개인 정보 보호 정책의 “행사를 참여하는” 경우 개인 정보를 수집한다는 내용은 본 이벤트와 같은 행사에 참여하는 것을 의미하며, 개인 정보를 사용하여 “계정에 대한 연락”을 한다는 내용은 당첨이 되었을 때 상금에 대해 고지한다는 것을 의미합니다.</p><p style=""font-weight: bold;"">9. 일반</p><p style=""font-weight: 400;"">9.1 본 이용 약관을 위반했다고 볼 수 있는 상당한 근거가 있는 경우 MATCHESFASHION.COM은 단독 자유재량에 따라 해당 응모자의 자격을 박탈할 수 있는 권리를 보유합니다.</p><p style=""font-weight: 400;"">9.2 MATCHESFASHION.COM은 필요한 경우 이벤트를 무효화하거나, 연기하거나, 취소하거나, 수정할 수 있는 권리가 있습니다.</p><p style=""font-weight: 400;"">9.3 본 이용 약관은 영국 법에 의해 규율되며 이와 관련 해당 고객은 영국과 웨일스 법원의 독점적 관할권을 적용받습니다.</p>
"
fr-only-t-and-c-part-2;
TNC-DHL-RUSSIA;
