# uid;name;localizedName;localizedName;localizedName;localPhoneNumber;intlPhoneNumber;fax;email
MyStylistContactUs;UK MyStylist;;;;0800 009 4123;+44 (0) 20 7022 0828;;mystylist@matchesfashion.com
PrivateShoppingContactUs;Private Shopping;Shopping privé;프라이빗 쇼핑;プライベートショッピング;;+44 (0)333 321 2167;;privateshopping@matchesfashion.com
CustomerCareContactUs;Customer care;;;;| 0 800 009 4123;+44 (0)20 7022 0828 ;;customercare@matchesfashion.com
MyStylistContactUsUS;US MyStylist;;;;1-877-782-7317;+44 (0) 20 7022 0828;;mystylist@matchesfashion.com
MyStylistContactUsAU;Australian MyStylist;;;;1-800-836-284;+44 (0) 20 7022 0828;;mystylist@matchesfashion.com
MyStylistContactUsINT;International MyStylist;;;;;+44 (0) 20 7022 0828;;mystylist@matchesfashion.com
MyStylistContactUsFR;French MyStylist;(Numéro d’appel gratuit basé au Royaume-Uni);;;0800 945 810;+44 (0) 20 7022 0828;;mystylist@matchesfashion.com
MyStylistContactUsDE;German MyStylist;;;;;+44 (0) 20 7022 0828;;mystylist@matchesfashion.com
MyStylistContactUsHK;Hong Kong MyStylist;;;;5808 7188;+44 (0) 20 7022 0828;;mystylist@matchesfashion.com
MyStylistContactUsSK;Korean MyStylist;;;;;+44 (0) 20 7022 0828;;mystylist@matchesfashion.com
MyStylistContactUsAPAC;APAC MyStylist;;;;+852 5808 7188;+44 (0) 20 7022 0828;;mystylist@matchesfashion.com
OrderConfirmationContactUsItemUS;US Phone Numbers;;;;1-877-782-7317 (USA Toll Free);+44 (0)20 7022 0828;;orders@matchesfashion.com
OrderConfirmationContactUsItemAU;AU Phone Numbers;;;;1-800-836-284 (Australia Toll Free);+44 (0)20 7022 0828;;orders@matchesfashion.com
OrderConfirmationContactUsItemDE;DE Phone Numbers;;;;"0800 723 8899 (German freephone; English speaking)";+44 (0)20 7022 0828;;orders@matchesfashion.com
OrderConfirmationContactUsItemFR;FR Phone Numbers;;;;0800 945 810;+44 (0)20 7022 0828;;orders@matchesfashion.com
OrderConfirmationContactUsItemHK;HK Phone Numbers;;;;"5808 7188 (local rates in Hong Kong; English speaking)";+44 (0)20 7022 0828;;orders@matchesfashion.com
OrderConfirmationContactUsItemSK;SK Phone Numbers;;;;080 822 0307;+44 (0)20 7022 0828;;orders@matchesfashion.com
OrderConfirmationContactUsItemINT;INT Phone Numbers;;;;;+44 (0)20 7022 0828;;orders@matchesfashion.com
OrderConfirmationContactUsItemUK;UK Phone Numbers;;;;0800 009 4123 (UK Toll Free);+44 (0)20 7022 0828;;orders@matchesfashion.com
OrderConfirmationContactUsItemAPAC;APAC Phone Numbers;;;;+852 5808 7188;+44 (0)20 7022 0828;;orders@matchesfashion.com
