# uid;items
NoResultContactUsComponent;CustomerCareContactUs,MyStylistContactUs,MyStylistContactUsUS,MyStylistContactUsAU,MyStylistContactUsINT,MyStylistContactUsFR,MyStylistContactUsDE,MyStylistContactUsHK,MyStylistContactUsSK,MyStylistContactUsAPAC,PrivateShoppingContactUs
PdpContactUsComponent;MyStylistContactUs,MyStylistContactUsUS,MyStylistContactUsAU,MyStylistContactUsINT,MyStylistContactUsFR,MyStylistContactUsDE,MyStylistContactUsHK,MyStylistContactUsSK,MyStylistContactUsAPAC
